5.14366 12.7615 0.339006
11.4467 11.5189 2.85079
12.4969 4.92594 1.87946
8.86968 9.66139 2.30199
11.7479 4.44409 3.09188
5.63168 9.13169 0.588164
8.03686 9.99317 3.10009
5.87332 9.89586 2.78936
8.58704 12.7493 0.0305536
12.5856 5.89521 0.659863
7.53553 12.3647 2.1235
9.48684 9.8808 1.44867
5.58197 8.0226 3.01818
10.9438 10.2579 1.85309
8.339 8.74596 0.787443
4.2052 4.05477 0.775559
11.5795 7.65659 0.560945
9.08598 7.79987 1.21299
3.64878 8.97893 1.71967
11.8079 9.84875 0.716713
6.85905 4.04046 2.30049
8.18743 4.27972 1.83587
4.2085 4.56941 2.43603
11.9758 9.71616 2.85471
6.71031 9.80778 0.471977
7.09243 10.5253 2.79846
11.0823 9.46086 1.94348
9.60742 5.70774 2.97321
5.43996 4.62895 0.281121
6.38357 5.95498 2.35037
3.5281 6.07809 0.728616
8.11601 9.51672 0.719042
10.2338 11.5283 0.320703
7.87645 10.0223 0.331523
8.26222 6.00958 0.342685
5.49742 8.94775 0.161156
5.21191 5.35792 0.0206204
8.89215 5.6562 2.06302
4.81265 4.60519 2.62631
11.5654 8.69775 0.0771539
5.80169 5.77892 2.44811
7.07661 7.99741 2.15337
8.31621 9.60803 0.77497
11.3082 7.48756 0.0626092
10.3033 7.88462 2.80652
5.71837 10.8572 1.49741
6.24974 4.53643 1.99656
5.92158 11.3087 2.25564
7.36529 5.69126 1.56228
4.58497 5.41597 1.15175
6.24941 7.35713 1.67527
10.2637 7.06025 2.84467
9.21386 4.42346 0.410303
7.82607 9.48416 2.5032
7.0769 6.96522 1.21712
5.66147 6.60441 1.23982
5.11598 5.97478 0.038201
6.09967 5.14317 0.980311
9.49736 6.48188 3.07324
10.8112 11.578 1.65288
10.7956 3.52967 1.69598
3.43871 3.80506 2.86038
7.14854 6.42006 2.83586
6.66719 9.11568 1.47027
7.29088 12.1354 0.133137
4.6109 11.5641 2.62952
5.46461 5.22189 0.774953
12.0376 7.78549 1.91214
9.02855 12.7112 0.326114
4.20585 7.49174 0.425292
11.0803 8.26262 0.263883
6.11256 10.5577 0.122552
12.5309 4.51959 2.55905
11.4338 6.63422 1.84229
5.04117 7.31536 1.75577
4.77454 11.0465 1.78156
11.846 12.3054 0.0398819
5.50982 5.74708 0.304047
11.1926 9.90125 1.78328
3.58679 6.92476 2.04923
11.0375 11.3677 0.57994
6.64901 11.1198 2.94339
11.3734 4.98236 2.87374
4.37032 5.54055 2.18344
12.4722 11.2786 3.02793
6.08422 3.35006 0.662397
12.2099 4.21199 2.87228
10.6544 3.80347 3.09209
10.0328 3.93471 2.07589
4.35836 11.5989 1.77527
11.9502 11.2104 2.49612
11.4729 8.68359 1.15523
8.24568 9.92932 1.8485
7.91265 5.73048 2.77017
5.50676 3.30578 2.10194
4.6723 8.32321 0.156685
3.58959 7.70582 0.0747392
11.8101 5.70141 2.39223
5.75061 5.7419 2.86214
4.44582 8.61892 1.21446
8.10927 9.29616 2.88862
12.073 5.74444 0.548604
6.42436 8.22753 1.04023
11.8062 7.244 2.4688
8.35401 6.80774 0.628309
10.3952 10.0758 0.5521
10.9813 11.2602 2.68421
5.20659 8.35979 2.67875
11.0602 7.99537 2.98052
7.78941 6.08123 2.95614
9.21927 5.31957 1.05542
9.01162 9.0687 1.11922
6.64531 4.68831 1.88576
10.3619 8.48211 0.798963
10.4197 6.46736 1.82669
6.1514 7.79967 2.92383
11.0589 11.0332 1.71923
12.4515 5.39155 1.75663
8.13611 11.2288 1.76519
5.66573 9.74966 0.741307
9.6758 7.40832 0.898549
8.24529 11.2162 2.12106
5.3599 7.84468 2.05888
11.4004 10.9399 1.74681
6.80914 9.8609 1.09004
4.55599 3.28635 1.89886
4.73365 11.8842 1.9539
6.55757 4.14464 0.165596
7.39324 10.8619 0.212029
7.252 8.58356 1.87653
7.24535 11.8822 2.95108
8.47072 4.31968 1.7269
7.42646 4.96215 1.86686
11.4239 3.31498 2.7837
6.12639 8.61682 0.936574
7.46797 6.4612 0.989915
6.9075 3.91316 3.06496
3.78965 12.7477 1.64758
11.8546 3.6621 0.28193
7.45571 4.96656 2.30893
12.1266 9.18386 1.55783
8.3439 11.4908 1.19276
3.43889 10.5438 2.8672
4.59046 9.71297 1.62589
8.22277 6.60953 1.50859
5.97688 9.98804 0.0981965
6.39287 5.07664 2.13287
10.2607 11.8215 1.56711
9.27054 4.6441 0.567504
7.48643 6.49161 2.01674
6.10388 11.5822 0.672091
6.36731 12.2959 2.18759
6.45584 6.30268 1.10344
12.316 6.01284 1.63802
8.62418 11.0583 0.339839
6.41803 11.9254 2.53958
5.014 9.17213 0.299516
8.3343 7.52164 1.01931
11.6702 4.60596 1.50765
9.73662 6.77681 0.983134
12.6803 6.68147 0.559378
7.15762 10.0805 1.79809
10.0659 9.79725 2.01965
8.87515 6.88921 3.07376
12.0198 10.2576 1.39687
5.66835 5.38153 1.25256
3.72043 10.309 0.0383004
5.50785 6.67019 1.13329
6.19631 7.79187 0.859336
11.3345 7.69306 0.879242
10.6491 8.61719 2.88763
11.7223 8.30467 1.54464
5.79796 4.60767 0.52714
9.54634 5.15163 2.11075
10.7328 11.0785 0.0226539
12.0057 3.76571 2.611
5.38393 9.89149 3.12817
3.78621 6.13381 1.06627
5.33523 12.5786 0.41421
4.09751 6.78499 2.81621
3.85074 11.6336 2.89876
3.40877 7.8537 0.334186
12.6561 12.636 2.97795
7.84321 7.85034 0.416291
6.75911 5.2578 1.31624
5.54562 6.13252 1.24387
4.36119 7.17417 2.56708
4.07878 9.86205 0.78135
7.30679 5.50798 1.94522
9.04269 7.91521 1.13089
9.60122 8.34572 0.505353
10.1085 4.85578 2.3029
5.20873 4.24128 2.44914
5.50439 5.24852 1.43407
6.87203 6.87923 2.17268
11.2454 4.19865 2.28595
6.14001 12.0592 0.654446
9.43137 4.82013 2.62422
5.98609 5.73822 0.0877657
12.1687 7.34513 0.604511
11.8423 12.5264 0.654131
11.9203 10.1731 2.79838
3.48277 3.81551 1.25878
8.76178 10.7101 2.92808
3.37642 10.8874 2.17899
5.71441 4.98898 1.15736
10.507 3.94587 1.66668
4.51944 9.23725 2.71362
4.65588 6.13518 2.95804
11.4776 6.06134 2.3433
9.59634 10.985 0.832934
3.30932 9.62285 3.03243
11.3028 6.51216 2.14252
3.78002 4.4909 1.55591
5.84183 7.59037 1.05612
9.42837 5.95177 2.75903
4.46454 12.7807 1.51
5.65797 6.81335 2.41881
10.4884 8.02583 0.605679
5.96389 9.83392 2.30133
11.9995 6.68065 0.752347
5.80786 4.24934 0.0448181
8.42649 11.2121 1.61439
11.9435 5.74211 1.81463
4.31736 9.14782 0.0965827
7.4264 9.33315 2.12508
11.255 9.84126 2.65924
11.5879 12.7663 2.86289
3.53041 3.98909 1.11724
8.77769 5.7626 0.969664
11.5791 12.5764 0.576775
10.1591 11.4681 1.0385
3.67016 9.95353 0.064436
4.58282 10.8044 2.47958
6.50168 9.74638 2.90471
6.07804 4.85353 2.54329
11.0299 6.69123 3.00147
7.95618 12.6199 1.91544
3.88221 4.34013 3.04524
3.65333 6.44407 2.06367
8.14914 8.20723 1.73691
7.17846 11.3302 0.884538
8.14027 3.77796 0.0703203
11.8823 3.21773 2.51866
10.3396 3.58958 0.39021
11.071 4.45263 0.205667
6.26556 12.4062 0.101259
11.5349 4.48346 2.49124
10.9986 5.36684 0.911493
11.1412 7.69429 2.40868
8.43923 11.1065 3.1245
9.3701 8.04225 0.699265
4.35423 4.22712 0.104632
11.4776 10.6207 0.418961
10.8695 10.2449 2.23391
8.55612 11.6436 0.81007
10.8653 8.25587 1.62951
7.9025 3.51028 0.0393243
3.96283 3.88827 0.12376
3.31293 10.5726 1.61005
10.4456 9.21909 3.03997
5.32293 3.69197 1.37278
5.29956 7.10223 1.23269
6.87313 5.86111 1.9625
4.03118 6.6799 3.0654
3.96354 7.0343 0.0950229
4.215 5.99101 2.71655
3.90436 7.61511 0.111918
6.84492 11.6862 2.72482
7.70349 8.83288 2.57055
5.7212 8.3681 0.536338
9.85498 12.2504 1.78259
11.1655 5.65207 1.41714
8.98792 4.42702 2.32846
7.09016 8.22483 0.886625
7.61915 11.4359 1.07611
5.87153 6.9727 2.81482
10.1168 11.7888 2.75117
7.77411 9.61897 0.446708
8.46582 7.52381 1.05095
11.9275 5.80957 0.632317
10.1518 12.0591 2.64488
11.2168 5.20549 1.27441
4.3844 10.8988 2.24723
7.6048 12.5542 2.34372
12.498 7.58916 2.53889
5.12345 3.20014 2.51241
5.76574 3.57561 0.327159
10.1085 9.77444 2.61359
6.93174 8.16414 1.18557
3.36429 4.97527 0.944888
7.20678 4.31255 1.94698
11.8077 4.46256 2.13829
5.0326 3.67537 2.76193
11.1971 11.6577 3.04416
8.99807 10.556 0.612609
12.6641 8.88454 1.62004
3.85657 12.1533 2.7873
6.46782 5.80271 1.42052
12.172 10.7958 0.609171
11.8177 7.87698 2.18649
8.53263 10.0054 0.896325
12.6938 12.678 0.115569
11.9526 6.14704 2.66164
4.34369 11.4917 0.687298
5.79577 4.81262 2.56282
9.3104 12.7798 2.42584
5.80421 8.59857 0.396489
8.1312 3.35126 2.08903
9.05989 6.85129 2.02334
12.5809 5.43858 2.76878
10.8164 4.23477 0.768438
8.48716 11.6963 0.0290338
12.7052 10.8174 0.535951
7.28568 7.132 0.254078
9.54618 7.35614 0.685456
4.71658 5.67089 2.81147
4.27765 10.4633 2.2653
7.93536 6.02234 2.87301
6.54489 5.15868 1.9699
5.51398 9.16023 1.60872
8.39637 10.1031 0.555485
5.74934 7.55316 0.10901
4.39032 5.48554 1.84929
4.50056 9.15389 0.618317
4.50847 4.73446 1.22326
7.71431 4.99282 3.11417
5.10935 10.0014 2.31648
4.89355 8.50937 0.516192
9.64363 8.24505 2.84546
7.6514 5.77453 1.1688
7.66584 7.46709 2.68754
9.982 5.73208 1.01198
6.27278 7.85839 0.47926
9.7792 9.3756 1.9775
3.39696 10.5681 1.44736
4.34184 3.61266 0.324533
3.78933 5.30628 1.7497
5.4262 9.97374 0.25203
4.25656 4.1903 2.29397
8.53629 11.971 1.49644
8.17994 5.5335 2.74778
12.4279 3.33779 0.0497464
6.26286 9.58771 1.09328
4.8502 9.29291 0.929576
5.35495 4.02404 0.759083
5.90082 9.52671 2.09513
6.89696 4.87613 0.872393
4.48329 5.9087 1.77238
10.8402 8.92455 2.00187
9.32682 4.80435 2.04178
9.65478 10.2539 2.40814
11.5113 10.3986 2.77864
7.41235 7.71301 2.36447
11.4677 5.40202 0.445904
7.46579 6.52297 1.97792
5.80078 8.61532 2.70697
8.36254 12.7533 2.80012
7.26725 5.89694 0.619055
9.05305 10.9073 2.17211
7.5665 4.43697 2.16046
10.0165 11.0743 2.86978
6.55097 7.39446 1.82985
8.96834 12.3574 0.611826
10.4751 10.2977 2.96569
8.60168 8.54877 0.904207
10.4062 9.0277 0.582752
10.0905 3.84496 2.01261
12.2583 5.54121 1.09789
11.0477 4.80787 2.11504
9.88075 3.99115 0.829636
6.57019 10.0055 1.20622
5.08957 4.59431 2.90851
7.01162 10.2466 2.36996
6.98469 4.52749 1.85264
7.53866 8.52685 3.03132
3.53101 10.415 2.44714
5.9585 7.13486 0.49856
6.27399 7.7606 0.927844
11.6176 9.0351 1.75358
7.16152 12.6289 1.22928
7.16334 3.58773 1.69685
6.15293 10.2348 0.291627
7.86848 9.63562 1.97777
9.98198 11.4719 0.841307
9.36728 6.04758 1.28019
7.3047 3.95191 1.54065
5.85092 9.75311 1.00882
3.34669 4.01142 2.53684
5.67846 9.92386 0.225601
7.46337 8.5182 2.87799
5.71595 10.7273 2.42544
7.92536 5.85596 0.0238056
7.98667 11.7118 1.5318
5.23089 9.6881 2.69073
5.19002 4.27666 1.27624
6.74084 7.29892 2.26809
12.529 12.6991 1.7457
10.2302 10.1534 1.70154
9.80454 6.59749 2.14357
10.1894 4.20504 2.07664
3.42332 7.75725 0.497879
12.4299 7.33473 1.75304
3.5419 9.73185 0.809664
5.31651 7.44835 2.03875
6.54977 11.034 1.00137
6.68546 11.3198 1.37236
9.99828 9.97005 1.37108
4.12786 11.4874 0.518764
12.1309 8.40094 0.467294
10.5779 5.12144 1.72282
12.253 9.16711 3.05202
8.84267 6.11755 0.769632
8.20642 9.89991 2.86503
4.49839 8.13273 0.0477296
9.78156 6.30171 0.677677
9.68597 6.81574 0.196421
8.64597 5.05699 1.608
5.89464 9.69119 0.733278
10.9004 8.40353 1.72508
5.04465 11.4909 0.514075
6.36044 10.3288 3.12339
10.7572 4.57025 1.68779
5.58306 6.37818 1.14409
7.4192 3.41376 1.15913
10.383 10.8967 1.1904
10.9575 6.54884 1.71716
12.0882 6.57824 1.32578
10.4706 12.4286 2.71555
11.7672 8.36484 3.08633
3.3486 6.40247 1.47595
7.18347 10.3634 1.49561
10.3247 7.08326 0.914319
10.9116 4.73124 2.36328
3.47405 12.1775 2.12809
3.9866 12.5718 2.91254
11.5404 5.96071 1.96958
11.3421 3.22274 1.21703
5.60333 9.37832 3.07296
7.56848 4.24727 0.828108
10.2028 4.39031 0.022493
11.3859 6.99976 2.44163
8.78747 10.6877 1.24767
7.1243 3.64446 2.69329
10.9625 12.2683 0.296281
12.6246 5.37628 2.06827
5.31125 12.4704 2.28376
3.61027 5.02131 1.9839
11.8259 11.5621 0.685742
8.64336 4.95338 0.605759
12.5717 11.0623 1.49388
4.01505 10.841 1.1679
11.313 5.71597 2.61607
7.76967 4.86186 0.72585
11.7434 10.8264 0.0336247
11.2826 9.59698 0.882013
4.45229 8.95701 0.821854
9.43635 6.93692 1.23579
7.55928 12.7555 0.22559
10.7728 3.25796 1.3508
11.4811 6.22343 2.05854
9.98971 10.5393 0.991428
8.15297 7.42187 1.32816
9.93674 12.4646 0.873051
7.78033 3.54353 0.820999
12.5072 6.17812 2.30068
10.8282 8.40206 0.693988
4.54015 3.70095 1.61269
12.4948 12.2826 2.54062
7.46921 7.21286 2.4164
5.96211 10.4566 2.52604
4.68708 11.1764 1.12916
10.6988 5.49365 0.203354
9.76453 11.9041 1.16335
7.35925 5.88979 1.92454
7.32864 11.9958 2.24415
10.9478 12.052 1.78878
7.57092 7.37376 0.557982
6.87407 4.88274 0.279637
11.7771 9.7201 0.919006
11.3487 6.77039 1.82258
11.065 4.71417 0.330615
10.8583 3.64508 2.46944
3.73838 7.24916 0.974758
10.4631 4.57945 1.0483
11.6483 11.486 0.0516106
4.88715 10.7015 2.7819
6.51852 6.53579 1.20656
6.87012 5.45933 1.87047
9.25199 9.14678 0.72323
6.62472 8.27762 1.97151
4.19982 12.2911 2.17699
12.3308 8.92799 2.89937
6.37672 7.99582 1.50194
11.619 11.009 0.595348
7.01823 8.31129 0.686563
5.16887 7.96677 0.661702
9.14858 9.28962 1.69372
8.72881 5.12816 2.10605
8.8497 7.56444 3.14023
5.27388 12.3994 1.72642
7.61262 8.804 0.74358
12.6856 6.82297 1.70251
9.82922 12.3767 2.87271
7.89472 11.6786 2.10269
6.95133 6.28852 0.454081
10.5475 9.35943 0.468932
11.1263 11.4616 3.08599
7.60159 7.77451 2.24121
10.5862 7.80197 0.234538
9.71262 5.46485 0.58593
10.684 4.70303 1.92977
